{
  "count": 30,
  "next": "pushes/?delivered=true&format=json&limit=1&offset=1",
  "previous": null,
  "results": [
    {
      "id": 4,
      "pub_date": "2018-03-20",
      "timing": "evening",
      "published": true,
      "delivered_fb": "sent",
      "delivered_date_fb": "2018-03-20T18:36:09+01:00",
      "headline": "Abendpush 21.03.",
      "intro": "Hey, alles klar bei dir? Dein Informant ist wieder hier - und das habe ich für dich:",
      "reports": [
        {
          "id": 2,
          "created": "2018-03-20T16:10:05+01:00",
          "genres": [
            {
              "id": 3,
              "name": "Wissenschaft"
            },
            {
              "id": 4,
              "name": "Umwelt"
            }
          ],
          "topic": {
            "id": 24,
            "name": "Luftverschmutzung"
          },
          "tags": [],
          "headline": "Luft in einigen NRW-Städten ist besser geworden",
          "short_headline": "Bessere Luft",
          "text": "Aufatmen! Die Luft in NRW ist letztes Jahr ein bisschen sauberer geworden! Die schlechte Nachricht: Es hängt immer noch ziemlich viel Dreck in der Luft 😷",
          "media": "6ee31209-04e9-4cbd-ac3d-c24beb58c993.gif",
          "media_original": "6ee31209-04e9-4cbd-ac3d-c24beb58c993.gif",
          "media_note": null,
          "published": true,
          "delivered": false
        },
        {
          "id": 253,
          "created": "2018-03-20T16:51:09+01:00",
          "genres": [
            {
              "id": 8,
              "name": "Verkehr"
            }
          ],
          "topic": {
            "id": 23,
            "name": "Auto"
          },
          "tags": [
            {
              "id": 250,
              "name": "Selbstfahrende Autos"
            },
            {
              "id": 535,
              "name": "Uber"
            }
          ],
          "headline": "Unfall löst Diskussion aus",
          "short_headline": "Unfall",
          "text": "Der tödliche Unfall mit einem selbstfahrenden Auto 🚗 in den USA hat ziemlich viel Wirbel ausgelöst. Es geht darum, wie sicher Roboter-Autos sind.",
          "media": null,
          "media_original": null,
          "media_note": null,
          "published": true,
          "delivered": false
        },
        {
          "id": 251,
          "created": "2018-03-20T15:27:05+01:00",
          "genres": [
            {
              "id": 7,
              "name": "Sport"
            }
          ],
          "topic": {
            "id": 47,
            "name": "Fußball"
          },
          "tags": [],
          "headline": "Public Viewing wird auch nach 22 Uhr erlaubt",
          "short_headline": "Public Viewing",
          "text": "Bald gibt's hoffentlich wieder ordentlich Grund zum Jubeln. ⚽ Genau, bei der Fußball-WM im Sommer! Und feiern darfst du mit deinen Freunden auch, wenn die Mannschaft erst spät auf den Platz muss.",
          "media": "4522857d-9f8a-4128-898a-2bbd0475fb0e.jpg",
          "media_original": "f7fcffa7-3920-4f17-abc7-4653407cccec.jpg",
          "media_note": "picture alliance",
          "published": true,
          "delivered": false
        },
        {
          "id": 254,
          "created": "2018-03-20T17:27:51+01:00",
          "genres": [
            {
              "id": 5,
              "name": "Pop"
            }
          ],
          "topic": {
            "id": 39,
            "name": "Musik 🎶"
          },
          "tags": [],
          "headline": "Das Letzte: Deine Songs zum Glücklichsein",
          "short_headline": "Das Letzte",
          "text": "Heute ist Weltglückstag 🍀🍀🍀 Meine Kollegen aus der 1LIVE-Musikredaktion haben deshalb mal drei Gute-Laune-Songs für dich rausgesucht.",
          "media": null,
          "media_original": null,
          "media_note": null,
          "published": true,
          "delivered": false
        }
      ],
      "outro": "Das war's von mir. Hab' einen schönen Abend. Ich melde mich morgen früh wieder bei dir.",
      "media": null,
      "media_original": null,
      "media_note": null
    }
  ]
}
